…
Load & Clean Data
=================

``` r
# load data
manhattan <- read.csv("rollingsales_manhattan.csv")
```

Cleaning & Formatting
---------------------

    ## # A tibble: 25,783 x 21
    ##    BOROUGH NEIGHBORHOOD BUILDING.CLASS.… TAX.CLASS.AT.PR… BLOCK   LOT
    ##      <int> <fct>        <fct>            <fct>            <int> <int>
    ##  1       1 "KIPS BAY  … "31  COMMERCIAL… 4                  967     1
    ##  2       1 "LITTLE ITA… "01  ONE FAMILY… 1                  471     1
    ##  3       1 "UPPER EAST… "10  COOPS - EL… 2                 1381     1
    ##  4       1 "UPPER EAST… "10  COOPS - EL… 2                 1381     1
    ##  5       1 "UPPER EAST… "10  COOPS - EL… 2                 1381     1
    ##  6       1 "UPPER EAST… "10  COOPS - EL… 2                 1381     1
    ##  7       1 "TRIBECA   … "10  COOPS - EL… 2                  140     1
    ##  8       1 "TRIBECA   … "10  COOPS - EL… 2                  140     1
    ##  9       1 "TRIBECA   … "10  COOPS - EL… 2                  140     1
    ## 10       1 "SOUTHBRIDG… "33  EDUCATIONA… 4                  102     1
    ## # ... with 25,773 more rows, and 15 more variables: EASE.MENT <lgl>,
    ## #   BUILDING.CLASS.AT.PRESENT <fct>, ADDRESS <fct>,
    ## #   APART.MENT.NUMBER <fct>, ZIP.CODE <int>, RESIDENTIAL.UNITS <fct>,
    ## #   COMMERCIAL.UNITS <int>, TOTAL.UNITS <fct>, LAND.SQUARE.FEET <fct>,
    ## #   GROSS.SQUARE.FEET <fct>, YEAR.BUILT <int>,
    ## #   TAX.CLASS.AT.TIME.OF.SALE <dbl>, BUILDING.CLASS.AT.TIME.OF.SALE <fct>,
    ## #   SALE.PRICE <fct>, SALE.DATE <fct>
…
